{
    "development": {
        "username": "postgres",
        "password": "123456",
        "database": "test_db",
        "host": "127.0.0.1",
        "dialect": "postgres",
        "define": {
            "timestamps": false
        }
    },
    "test": {
        "username": "root",
        "password": null,
        "database": "database_test",
        "host": "127.0.0.1",
        "dialect": "mysql"
    },
    "production": {
        "username": "root",
        "password": null,
        "database": "database_production",
        "host": "127.0.0.1",
        "dialect": "mysql"
    }
}